{
  "response": [
    {
      "id": 1,
      "name": "Familiares",
      "children": [
        {
          "id": 2,
          "name": "Star Wars"
        },
        {
          "id": 3,
          "name": "Lovecraft"
        },
        {
          "id": 4,
          "name": "Euros"
        }
      ]
    },
    {
      "id": 5,
      "name": "Rápidos"
    }
  ]
}
