{
  "error": {
    "code": 0,
    "message": "OK",
    "severity": "NONE"
  },
  "response": {
    "id": 163,
    "stock": true,
    "featured": false,
    "variant": {
      "priority": 1,
      "productId": 163,
      "slug": "terraforming-mars",
      "id": 87,
      "name": "Terraforming Mars",
      "shortDescription": "En el año 2400, la humanidad comienza a terraformar el planeta Marte.",
      "price": 1800,
      "ref": "terra_MARS",
      "creationDate": "2019-12-07T11:33:13.000+0000",
      "attributes": [
        {
          "id": 17,
          "name": "Dificultad",
          "values": [
            {
              "id": 31,
              "name": "Dificultad",
              "value": "Difícil",
              "attributeId": 17
            }
          ]
        }
      ],
      "attributeValues": [
        {
          "id": 31,
          "name": "Dificultad",
          "value": "Difícil",
          "attributeId": 17
        }
      ],
      "images": [
        {
          "id": 3,
          "url": "https://i.pinimg.com/564x/75/96/06/759606ab4a12b10a324c6d33a83e1197.jpg",
          "signature": "1559286435696",
          "title": "Terraforming Mars",
          "alt": "Pepsi",
          "description": "Texto de prueba",
          "name": "terraforming.png",
          "thumbnailUrl": "https://i.pinimg.com/564x/75/96/06/759606ab4a12b10a324c6d33a83e1197.jpg",
          "thumbnailSignature": "1559286639222"
        }
      ]
    },
    "categoriesObject": []
  },
  "requestCode": "18a50a25-fa37-4446-be48-ce04ee563895"
}
